{
  "development": {
    "host": "127.0.0.1",
    "port": 6379,
    "ttl": 14400
  },
  "test": {
    "host": "127.0.0.1",
    "port": 6379,
    "ttl": 14400
  },
  "production": {
    "host": "127.0.0.1",
    "port": 6379,
    "ttl": 14400
  }
}