{
  "development": {
    "username": "vendarapida",
    "password": "Password#123",
    "database": "vendarapida_dev",
    "host": "127.0.0.1",
    "dialect": "postgres"
  },
  "test": {
    "username": "vendarapida",
    "password": "Password#123",
    "database": "vendarapida_test",
    "host": "127.0.0.1",
    "dialect": "postgres"
  },
  "production": {
    "username": "vendarapida",
    "password": "V3nd4R4p1d4#123",
    "database": "vendarapida",
    "host": "wesfel-db.cc0a8l26ce0u.us-east-1.rds.amazonaws.com",
    "dialect": "postgres"
  }
}
